HW5
…
## Warning: Problem with `mutate()` input `prop_tests`.
##  Chi-squared approximation may be incorrect
##  Input `prop_tests` is `map2(.x = hom_unsolved, .y = hom_total, ~prop.test(x = .x, n = .y))`.

## Warning in prop.test(x = .x, n = .y): Chi-squared approximation may be incorrect

## # A tibble: 51 x 4
##    city_state     estimate conf.low conf.high
##    <chr>             <dbl>    <dbl>     <dbl>
##  1 Albuquerque_NM    0.386    0.337     0.438
##  2 Atlanta_GA        0.383    0.353     0.415
##  3 Baltimore_MD      0.646    0.628     0.663
##  4 Baton Rouge_LA    0.462    0.414     0.511
##  5 Birmingham_AL     0.434    0.399     0.469
##  6 Boston_MA         0.505    0.465     0.545
##  7 Buffalo_NY        0.612    0.569     0.654
##  8 Charlotte_NC      0.300    0.266     0.336
##  9 Chicago_IL        0.736    0.724     0.747
## 10 Cincinnati_OH     0.445    0.408     0.483
## #  with 41 more rows
…
